…
## Results
- Summarize the years of data beween 2005 - 2010 for each Event Type to determine total injuries, fatalities, property damage and crop damage

```r
storm_impact = storm %>% 
  group_by(EVTYPE) %>% 
  summarize(inj = sum(INJURIES),
            fat = sum(FATALITIES),
            prop=sum(PROPDMG_USD_M),
            crop = sum(CROPDMG_USD_M))
storm_impact %>% arrange(desc(fat))
```

```
## # A tibble: 57 x 5
##    EVTYPE                    inj   fat       prop     crop
##    <fct>                   <dbl> <dbl>      <dbl>    <dbl>
##  1 EXCESSIVE HEAT           2033   446      3.26   492.   
##  2 TORNADO                  4977   381   5992.     162.   
##  3 FLASH FLOOD               326   312   6087.     684.   
##  4 RIP CURRENT               133   239      0.001    0    
##  5 LIGHTNING                1283   216    372.       1.06 
##  6 HEAT                      611   166      1.52     0.176
##  7 FLOOD                     182   137 123992.    2895.   
##  8 AVALANCHE                  70    96      2.53     0    
##  9 EXTREME COLD/WIND CHILL     7    81      1.13     0    
## 10 THUNDERSTORM WIND        1027    76   3001.     258.   
## # … with 47 more rows
```
…
